M48
M71,TZ
FMAT,2
T1C0.635
T2C1.1
T3C2.5
T4C3.1
T5C3.175
%
T1
X11.684Y48.768
X32.004Y36.576
X20.828Y48.768
X13.97Y48.26
X15.24Y37.084
X35.306Y66.04
X24.892Y63.5
X25.4Y36.576
X26.416Y56.388
X29.718Y56.388
X19.05Y32.512
X6.35Y57.15
X35.306Y64.516
X25.908Y52.629
X34.544Y49.53
X17.018Y36.068
X12.954Y69.342
X37.338Y31.496
X34.036Y78.74
X40.132Y69.342
T2
X20.374Y8.232
X17.634Y8.232
X31.334Y8.232
X14.894Y8.232
X28.594Y8.232
X25.854Y8.232
X13.524Y11.072
X16.264Y11.072
X19.004Y11.072
X32.704Y11.072
X29.964Y11.072
X27.224Y11.072
X24.484Y11.072
X21.744Y11.072
X23.114Y8.232
T3
X1.56Y80.772
X44.16Y80.772
X7.86Y76.272
X7.86Y80.772
X22.86Y76.272
X22.86Y80.772
X37.86Y76.272
X37.86Y80.772
T4
X6.454Y9.652
X39.774Y9.652
T5
X3.175Y69.85
X42.545Y42.672
X3.175Y19.05
T00
M30
