%TF.GenerationSoftware,KiCad,Pcbnew,7.0.0*%
%TF.CreationDate,2023-04-22T21:53:24-07:00*%
%TF.ProjectId,rgb2component,72676232-636f-46d7-906f-6e656e742e6b,0.2*%
%TF.SameCoordinates,PX61bdba8PY74e0a78*%
%TF.FileFunction,Paste,Top*%
%TF.FilePolarity,Positive*%
%FSLAX46Y46*%
G04 Gerber Fmt 4.6, Leading zero omitted, Abs format (unit mm)*
G04 Created by KiCad (PCBNEW 7.0.0) date 2023-04-22 21:53:24*
%MOMM*%
%LPD*%
G01*
G04 APERTURE LIST*
G04 Aperture macros list*
%AMRoundRect*
0 Rectangle with rounded corners*
0 $1 Rounding radius*
0 $2 $3 $4 $5 $6 $7 $8 $9 X,Y pos of 4 corners*
0 Add a 4 corners polygon primitive as box body*
4,1,4,$2,$3,$4,$5,$6,$7,$8,$9,$2,$3,0*
0 Add four circle primitives for the rounded corners*
1,1,$1+$1,$2,$3*
1,1,$1+$1,$4,$5*
1,1,$1+$1,$6,$7*
1,1,$1+$1,$8,$9*
0 Add four rect primitives between the rounded corners*
20,1,$1+$1,$2,$3,$4,$5,0*
20,1,$1+$1,$4,$5,$6,$7,0*
20,1,$1+$1,$6,$7,$8,$9,0*
20,1,$1+$1,$8,$9,$2,$3,0*%
%AMFreePoly0*
4,1,9,3.862500,-0.866500,0.737500,-0.866500,0.737500,-0.450000,-0.737500,-0.450000,-0.737500,0.450000,0.737500,0.450000,0.737500,0.866500,3.862500,0.866500,3.862500,-0.866500,3.862500,-0.866500,$1*%
G04 Aperture macros list end*
%ADD10RoundRect,0.250000X-0.312500X-0.625000X0.312500X-0.625000X0.312500X0.625000X-0.312500X0.625000X0*%
%ADD11RoundRect,0.250000X-0.550000X1.500000X-0.550000X-1.500000X0.550000X-1.500000X0.550000X1.500000X0*%
%ADD12RoundRect,0.250000X-0.625000X0.312500X-0.625000X-0.312500X0.625000X-0.312500X0.625000X0.312500X0*%
%ADD13RoundRect,0.250000X0.312500X0.625000X-0.312500X0.625000X-0.312500X-0.625000X0.312500X-0.625000X0*%
%ADD14RoundRect,0.250000X0.650000X-0.325000X0.650000X0.325000X-0.650000X0.325000X-0.650000X-0.325000X0*%
%ADD15RoundRect,0.150000X-0.825000X-0.150000X0.825000X-0.150000X0.825000X0.150000X-0.825000X0.150000X0*%
%ADD16RoundRect,0.250000X0.325000X0.650000X-0.325000X0.650000X-0.325000X-0.650000X0.325000X-0.650000X0*%
%ADD17RoundRect,0.250000X0.550000X-1.050000X0.550000X1.050000X-0.550000X1.050000X-0.550000X-1.050000X0*%
%ADD18RoundRect,0.250000X1.050000X0.550000X-1.050000X0.550000X-1.050000X-0.550000X1.050000X-0.550000X0*%
%ADD19RoundRect,0.250000X0.625000X-0.312500X0.625000X0.312500X-0.625000X0.312500X-0.625000X-0.312500X0*%
%ADD20RoundRect,0.249998X-3.650002X-4.550002X3.650002X-4.550002X3.650002X4.550002X-3.650002X4.550002X0*%
%ADD21RoundRect,0.150000X-0.150000X0.825000X-0.150000X-0.825000X0.150000X-0.825000X0.150000X0.825000X0*%
%ADD22R,0.900000X1.300000*%
%ADD23FreePoly0,270.000000*%
G04 APERTURE END LIST*
D10*
%TO.C,R8*%
X60706000Y5715000D03*
X63631000Y5715000D03*
%TD*%
D11*
%TO.C,C8*%
X31496000Y26355000D03*
X31496000Y20955000D03*
%TD*%
D12*
%TO.C,R16*%
X41656000Y21782500D03*
X41656000Y18857500D03*
%TD*%
D13*
%TO.C,R11*%
X54548500Y16510000D03*
X51623500Y16510000D03*
%TD*%
D12*
%TO.C,R18*%
X41656000Y11622500D03*
X41656000Y8697500D03*
%TD*%
D13*
%TO.C,R6*%
X66613500Y22860000D03*
X63688500Y22860000D03*
%TD*%
D14*
%TO.C,C4*%
X57531000Y13765000D03*
X57531000Y16715000D03*
%TD*%
D15*
%TO.C,U1*%
X53151000Y33020000D03*
X53151000Y31750000D03*
X53151000Y30480000D03*
X53151000Y29210000D03*
X58101000Y29210000D03*
X58101000Y30480000D03*
X58101000Y31750000D03*
X58101000Y33020000D03*
%TD*%
D11*
%TO.C,C9*%
X22446000Y35720000D03*
X22446000Y30320000D03*
%TD*%
D12*
%TO.C,R10*%
X44196000Y33212500D03*
X44196000Y30287500D03*
%TD*%
D13*
%TO.C,R4*%
X63881000Y31750000D03*
X60956000Y31750000D03*
%TD*%
%TO.C,R7*%
X63631000Y8255000D03*
X60706000Y8255000D03*
%TD*%
D16*
%TO.C,C1*%
X58371000Y35560000D03*
X55421000Y35560000D03*
%TD*%
D12*
%TO.C,R22*%
X39116000Y21782500D03*
X39116000Y18857500D03*
%TD*%
D13*
%TO.C,R9*%
X54548500Y11430000D03*
X51623500Y11430000D03*
%TD*%
%TO.C,R13*%
X49468500Y16510000D03*
X46543500Y16510000D03*
%TD*%
D14*
%TO.C,C3*%
X66421000Y11225000D03*
X66421000Y14175000D03*
%TD*%
D17*
%TO.C,C5*%
X70866000Y10900000D03*
X70866000Y14500000D03*
%TD*%
D18*
%TO.C,C6*%
X56686000Y22860000D03*
X53086000Y22860000D03*
%TD*%
D13*
%TO.C,R3*%
X72136000Y37465000D03*
X69211000Y37465000D03*
%TD*%
%TO.C,R2*%
X72328500Y22860000D03*
X69403500Y22860000D03*
%TD*%
D19*
%TO.C,R20*%
X32766000Y30287500D03*
X32766000Y33212500D03*
%TD*%
D13*
%TO.C,R1*%
X72328500Y7620000D03*
X69403500Y7620000D03*
%TD*%
D20*
%TO.C,C7*%
X20166000Y10160000D03*
X32666000Y10160000D03*
%TD*%
D19*
%TO.C,R24*%
X16256000Y31557500D03*
X16256000Y34482500D03*
%TD*%
%TO.C,R19*%
X35306000Y30287500D03*
X35306000Y33212500D03*
%TD*%
D16*
%TO.C,C2*%
X55831000Y26670000D03*
X52881000Y26670000D03*
%TD*%
D13*
%TO.C,R14*%
X49468500Y13970000D03*
X46543500Y13970000D03*
%TD*%
D12*
%TO.C,R15*%
X44196000Y21782500D03*
X44196000Y18857500D03*
%TD*%
%TO.C,R17*%
X44196000Y11622500D03*
X44196000Y8697500D03*
%TD*%
D21*
%TO.C,U2*%
X63881000Y16445000D03*
X62611000Y16445000D03*
X61341000Y16445000D03*
X60071000Y16445000D03*
X60071000Y11495000D03*
X61341000Y11495000D03*
X62611000Y11495000D03*
X63881000Y11495000D03*
%TD*%
D19*
%TO.C,R23*%
X39116000Y8697500D03*
X39116000Y11622500D03*
%TD*%
D22*
%TO.C,U3*%
X24105999Y26714999D03*
D23*
X22606000Y26627500D03*
D22*
X21105999Y26714999D03*
%TD*%
D19*
%TO.C,R21*%
X37846000Y30287500D03*
X37846000Y33212500D03*
%TD*%
%TO.C,R5*%
X60706000Y34097500D03*
X60706000Y37022500D03*
%TD*%
D10*
%TO.C,R12*%
X51623500Y13970000D03*
X54548500Y13970000D03*
%TD*%
M02*
